 INFO - krishagni.occat.integration.util.Utility - INFO - returnSECONDS
 INFO - krishagni.occat.integration.util.Utility - INFO - TIMe Unit Seconds
 INFO - krishagni.occat.integration.util.Utility - INFO -  in if Sen
 INFO - krishagni.occat.integration.util.Utility - INFO - AjaySECONDS
 INFO - krishagni.occat.integration.util.Utility - INFO - returnSECONDS
 INFO - krishagni.occat.integration.util.Utility - INFO - TIMe Unit Seconds
 INFO - krishagni.occat.integration.util.Utility - INFO -  in if Sen
 INFO - krishagni.occat.integration.util.Utility - INFO - AjaySECONDS
 INFO - krishagni.occat.integration.util.Utility - INFO - returnSECONDS
 INFO - krishagni.occat.integration.util.Utility - INFO - TIMe Unit Seconds
 INFO - krishagni.occat.integration.util.Utility - INFO -  in if Sen
 INFO - krishagni.occat.integration.util.Utility - INFO - AjaySECONDS
 INFO - krishagni.occat.integration.util.Utility - INFO - returnSECONDS
 INFO - krishagni.occat.integration.util.Utility - INFO - TIMe Unit Seconds
 INFO - krishagni.occat.integration.util.Utility - INFO -  in if Sen
 INFO - krishagni.occat.integration.util.Utility - INFO - AjaySECONDS
 INFO - krishagni.occat.integration.util.Utility - INFO - returnSECONDS
 INFO - krishagni.occat.integration.util.Utility - INFO - TIMe Unit Seconds
 INFO - krishagni.occat.integration.util.Utility - INFO -  in if Sen
 INFO - krishagni.occat.integration.util.Utility - INFO - AjaySECONDS
 INFO - krishagni.occat.integration.util.Utility - INFO - returnSECONDS
 INFO - krishagni.occat.integration.util.Utility - INFO - TIMe Unit Seconds
 INFO - krishagni.occat.integration.util.Utility - INFO -  in if Sen
 INFO - krishagni.occat.integration.util.Utility - INFO - AjaySECONDS
 INFO - krishagni.occat.integration.util.Utility - INFO - returnSECONDS
 INFO - krishagni.occat.integration.util.Utility - INFO - TIMe Unit Seconds
 INFO - krishagni.occat.integration.util.Utility - INFO -  in if Sen
 INFO - krishagni.occat.integration.util.Utility - INFO - AjaySECONDS
 INFO - krishagni.occat.integration.util.Utility - INFO - returnSECONDS
 INFO - krishagni.occat.integration.util.Utility - INFO - TIMe Unit Seconds
 INFO - krishagni.occat.integration.util.Utility - INFO -  in if Sen
 INFO - krishagni.occat.integration.util.Utility - INFO - AjaySECONDS
 INFO - krishagni.occat.integration.util.Utility - INFO - returnSECONDS
 INFO - krishagni.occat.integration.util.Utility - INFO - TIMe Unit Seconds
 INFO - krishagni.occat.integration.util.Utility - INFO -  in if Sen
 INFO - krishagni.occat.integration.util.Utility - INFO - AjaySECONDS
 INFO - krishagni.occat.integration.util.Utility - INFO - returnSECONDS
 INFO - krishagni.occat.integration.util.Utility - INFO - TIMe Unit Seconds
 INFO - krishagni.occat.integration.util.Utility - INFO -  in if Sen
 INFO - krishagni.occat.integration.util.Utility - INFO - AjaySECONDS
 INFO - krishagni.occat.integration.util.Utility - INFO - returnSECONDS
 INFO - krishagni.occat.integration.util.Utility - INFO - TIMe Unit Seconds
 INFO - krishagni.occat.integration.util.Utility - INFO -  in if Sen
 INFO - krishagni.occat.integration.util.Utility - INFO - AjaySECONDS
 INFO - krishagni.occat.integration.util.Utility - INFO - returnSECONDS
 INFO - krishagni.occat.integration.util.Utility - INFO - TIMe Unit Seconds
 INFO - krishagni.occat.integration.util.Utility - INFO -  in if Sen
 INFO - krishagni.occat.integration.util.Utility - INFO - AjaySECONDS
 INFO - krishagni.occat.integration.util.Utility - INFO - returnSECONDS
 INFO - krishagni.occat.integration.util.Utility - INFO - TIMe Unit Seconds
 INFO - krishagni.occat.integration.util.Utility - INFO -  in if Sen
 INFO - krishagni.occat.integration.util.Utility - INFO - AjaySECONDS
 INFO - krishagni.occat.integration.util.Utility - INFO - returnSECONDS
 INFO - krishagni.occat.integration.util.Utility - INFO - TIMe Unit Seconds
 INFO - krishagni.occat.integration.util.Utility - INFO -  in if Sen
 INFO - krishagni.occat.integration.util.Utility - INFO - AjaySECONDS
 INFO - krishagni.occat.integration.util.Utility - INFO - returnSECONDS
 INFO - krishagni.occat.integration.util.Utility - INFO - TIMe Unit Seconds
 INFO - krishagni.occat.integration.util.Utility - INFO -  in if Sen
 INFO - krishagni.occat.integration.util.Utility - INFO - AjaySECONDS
 INFO - krishagni.occat.integration.util.Utility - INFO - returnSECONDS
 INFO - krishagni.occat.integration.util.Utility - INFO - TIMe Unit Seconds
 INFO - krishagni.occat.integration.util.Utility - INFO -  in if Sen
 INFO - krishagni.occat.integration.util.Utility - INFO - AjaySECONDS
 INFO - krishagni.occat.integration.util.Utility - INFO - returnSECONDS
 INFO - krishagni.occat.integration.util.Utility - INFO - TIMe Unit Seconds
 INFO - krishagni.occat.integration.util.Utility - INFO -  in if Sen
 INFO - krishagni.occat.integration.util.Utility - INFO - AjaySECONDS
 INFO - krishagni.occat.integration.util.Utility - INFO - returnSECONDS
 INFO - krishagni.occat.integration.util.Utility - INFO - TIMe Unit Seconds
 INFO - krishagni.occat.integration.util.Utility - INFO -  in if Sen
 INFO - krishagni.occat.integration.util.Utility - INFO - AjaySECONDS
 INFO - krishagni.occat.integration.util.Utility - INFO - returnSECONDS
 INFO - krishagni.occat.integration.util.Utility - INFO - TIMe Unit Seconds
 INFO - krishagni.occat.integration.util.Utility - INFO -  in if Sen
 INFO - krishagni.occat.integration.util.Utility - INFO - AjaySECONDS
 INFO - krishagni.occat.integration.util.Utility - INFO - returnSECONDS
 INFO - krishagni.occat.integration.util.Utility - INFO - TIMe Unit Seconds
 INFO - krishagni.occat.integration.util.Utility - INFO -  in if Sen
 INFO - krishagni.occat.integration.util.Utility - INFO - AjaySECONDS
 INFO - krishagni.occat.integration.util.Utility - INFO - returnSECONDS
 INFO - krishagni.occat.integration.util.Utility - INFO - TIMe Unit Seconds
 INFO - krishagni.occat.integration.util.Utility - INFO -  in if Sen
 INFO - krishagni.occat.integration.util.Utility - INFO - AjaySECONDS
 INFO - krishagni.occat.integration.util.Utility - INFO - returnSECONDS
 INFO - krishagni.occat.integration.util.Utility - INFO - TIMe Unit Seconds
 INFO - krishagni.occat.integration.util.Utility - INFO -  in if Sen
 INFO - krishagni.occat.integration.util.Utility - INFO - AjaySECONDS
 INFO - krishagni.occat.integration.util.Utility - INFO - returnSECONDS
 INFO - krishagni.occat.integration.util.Utility - INFO - TIMe Unit Seconds
 INFO - krishagni.occat.integration.util.Utility - INFO -  in if Sen
 INFO - krishagni.occat.integration.util.Utility - INFO - AjaySECONDS
 INFO - krishagni.occat.integration.util.Utility - INFO - returnSECONDS
 INFO - krishagni.occat.integration.util.Utility - INFO - TIMe Unit Seconds
 INFO - krishagni.occat.integration.util.Utility - INFO -  in if Sen
 INFO - krishagni.occat.integration.util.Utility - INFO - AjaySECONDS
 INFO - krishagni.occat.integration.util.Utility - INFO - returnSECONDS
 INFO - krishagni.occat.integration.util.Utility - INFO - TIMe Unit Seconds
 INFO - krishagni.occat.integration.util.Utility - INFO -  in if Sen
 INFO - krishagni.occat.integration.util.Utility - INFO - AjaySECONDS
 INFO - krishagni.occat.integration.util.Utility - INFO - returnSECONDS
 INFO - krishagni.occat.integration.util.Utility - INFO - TIMe Unit Seconds
 INFO - krishagni.occat.integration.util.Utility - INFO -  in if Sen
 INFO - krishagni.occat.integration.util.Utility - INFO - AjaySECONDS
 INFO - krishagni.occat.integration.util.Utility - INFO - returnSECONDS
 INFO - krishagni.occat.integration.util.Utility - INFO - TIMe Unit Seconds
 INFO - krishagni.occat.integration.util.Utility - INFO -  in if Sen
 INFO - krishagni.occat.integration.util.Utility - INFO - AjaySECONDS
 INFO - krishagni.occat.integration.util.Utility - INFO - returnSECONDS
 INFO - krishagni.occat.integration.util.Utility - INFO - TIMe Unit Seconds
 INFO - krishagni.occat.integration.util.Utility - INFO -  in if Sen
 INFO - krishagni.occat.integration.util.Utility - INFO - AjaySECONDS
 INFO - krishagni.occat.integration.util.Utility - INFO - returnSECONDS
 INFO - krishagni.occat.integration.util.Utility - INFO - TIMe Unit Seconds
 INFO - krishagni.occat.integration.util.Utility - INFO -  in if Sen
 INFO - krishagni.occat.integration.util.Utility - INFO - AjaySECONDS
 INFO - krishagni.occat.integration.util.Utility - INFO - returnSECONDS
 INFO - krishagni.occat.integration.util.Utility - INFO - TIMe Unit Seconds
 INFO - krishagni.occat.integration.util.Utility - INFO -  in if Sen
 INFO - krishagni.occat.integration.util.Utility - INFO - AjaySECONDS
 INFO - krishagni.occat.integration.util.Utility - INFO - returnSECONDS
 INFO - krishagni.occat.integration.util.Utility - INFO - TIMe Unit Seconds
 INFO - krishagni.occat.integration.util.Utility - INFO -  in if Sen
 INFO - krishagni.occat.integration.util.Utility - INFO - AjaySECONDS
 INFO - krishagni.occat.integration.util.Utility - INFO - returnSECONDS
 INFO - krishagni.occat.integration.util.Utility - INFO - TIMe Unit Seconds
 INFO - krishagni.occat.integration.util.Utility - INFO -  in if Sen
 INFO - krishagni.occat.integration.util.Utility - INFO - AjaySECONDS
 INFO - krishagni.occat.integration.util.Utility - INFO - returnSECONDS
 INFO - krishagni.occat.integration.util.Utility - INFO - TIMe Unit Seconds
 INFO - krishagni.occat.integration.util.Utility - INFO -  in if Sen
 INFO - krishagni.occat.integration.util.Utility - INFO - AjaySECONDS
 INFO - krishagni.occat.integration.util.Utility - INFO - returnSECONDS
 INFO - krishagni.occat.integration.util.Utility - INFO - TIMe Unit Seconds
 INFO - krishagni.occat.integration.util.Utility - INFO -  in if Sen
 INFO - krishagni.occat.integration.util.Utility - INFO - AjaySECONDS
 INFO - krishagni.occat.integration.util.Utility - INFO - returnSECONDS
 INFO - krishagni.occat.integration.util.Utility - INFO - TIMe Unit Seconds
 INFO - krishagni.occat.integration.util.Utility - INFO -  in if Sen
 INFO - krishagni.occat.integration.util.Utility - INFO - AjaySECONDS
 INFO - krishagni.occat.integration.util.Utility - INFO - returnSECONDS
 INFO - krishagni.occat.integration.util.Utility - INFO - TIMe Unit Seconds
 INFO - krishagni.occat.integration.util.Utility - INFO -  in if Sen
 INFO - krishagni.occat.integration.util.Utility - INFO - AjaySECONDS
 INFO - krishagni.occat.integration.util.Utility - INFO - returnSECONDS
 INFO - krishagni.occat.integration.util.Utility - INFO - TIMe Unit Seconds
 INFO - krishagni.occat.integration.util.Utility - INFO -  in if Sen
 INFO - krishagni.occat.integration.util.Utility - INFO - AjaySECONDS
 INFO - krishagni.occat.integration.util.Utility - INFO - returnSECONDS
 INFO - krishagni.occat.integration.util.Utility - INFO - TIMe Unit Seconds
 INFO - krishagni.occat.integration.util.Utility - INFO -  in if Sen
 INFO - krishagni.occat.integration.util.Utility - INFO - AjaySECONDS
 INFO - krishagni.occat.integration.util.Utility - INFO - returnSECONDS
 INFO - krishagni.occat.integration.util.Utility - INFO - TIMe Unit Seconds
 INFO - krishagni.occat.integration.util.Utility - INFO -  in if Sen
 INFO - krishagni.occat.integration.util.Utility - INFO - AjaySECONDS
 INFO - krishagni.occat.integration.util.Utility - INFO - returnSECONDS
 INFO - krishagni.occat.integration.util.Utility - INFO - TIMe Unit Seconds
 INFO - krishagni.occat.integration.util.Utility - INFO -  in if Sen
 INFO - krishagni.occat.integration.util.Utility - INFO - AjaySECONDS
 INFO - krishagni.occat.integration.util.Utility - INFO - returnSECONDS
 INFO - krishagni.occat.integration.util.Utility - INFO - TIMe Unit Seconds
 INFO - krishagni.occat.integration.util.Utility - INFO -  in if Sen
 INFO - krishagni.occat.integration.util.Utility - INFO - AjaySECONDS
 INFO - krishagni.occat.integration.util.Utility - INFO - returnSECONDS
 INFO - krishagni.occat.integration.util.Utility - INFO - TIMe Unit Seconds
 INFO - krishagni.occat.integration.util.Utility - INFO -  in if Sen
 INFO - krishagni.occat.integration.util.Utility - INFO - AjaySECONDS
 INFO - krishagni.occat.integration.util.Utility - INFO - returnSECONDS
 INFO - krishagni.occat.integration.util.Utility - INFO - TIMe Unit Seconds
 INFO - krishagni.occat.integration.util.Utility - INFO -  in if Sen
 INFO - krishagni.occat.integration.util.Utility - INFO - AjaySECONDS
 INFO - krishagni.occat.integration.util.Utility - INFO - returnSECONDS
 INFO - krishagni.occat.integration.util.Utility - INFO - TIMe Unit Seconds
 INFO - krishagni.occat.integration.util.Utility - INFO -  in if Sen
 INFO - krishagni.occat.integration.util.Utility - INFO - AjaySECONDS
 INFO - krishagni.occat.integration.util.Utility - INFO - returnSECONDS
 INFO - krishagni.occat.integration.util.Utility - INFO - TIMe Unit Seconds
 INFO - krishagni.occat.integration.util.Utility - INFO -  in if Sen
 INFO - krishagni.occat.integration.util.Utility - INFO - AjaySECONDS
 INFO - krishagni.occat.integration.util.Utility - INFO - returnSECONDS
 INFO - krishagni.occat.integration.util.Utility - INFO - TIMe Unit Seconds
 INFO - krishagni.occat.integration.util.Utility - INFO -  in if Sen
 INFO - krishagni.occat.integration.util.Utility - INFO - AjaySECONDS
 INFO - krishagni.occat.integration.util.Utility - INFO - returnSECONDS
 INFO - krishagni.occat.integration.util.Utility - INFO - TIMe Unit Seconds
 INFO - krishagni.occat.integration.util.Utility - INFO -  in if Sen
 INFO - krishagni.occat.integration.util.Utility - INFO - AjaySECONDS
 INFO - krishagni.occat.integration.util.Utility - INFO - returnSECONDS
 INFO - krishagni.occat.integration.util.Utility - INFO - TIMe Unit Seconds
 INFO - krishagni.occat.integration.util.Utility - INFO -  in if Sen
 INFO - krishagni.occat.integration.util.Utility - INFO - AjaySECONDS
 INFO - krishagni.occat.integration.util.Utility - INFO - returnSECONDS
 INFO - krishagni.occat.integration.util.Utility - INFO - TIMe Unit Seconds
 INFO - krishagni.occat.integration.util.Utility - INFO -  in if Sen
 INFO - krishagni.occat.integration.util.Utility - INFO - AjaySECONDS
 INFO - krishagni.occat.integration.util.Utility - INFO - returnSECONDS
 INFO - krishagni.occat.integration.util.Utility - INFO - TIMe Unit Seconds
 INFO - krishagni.occat.integration.util.Utility - INFO -  in if Sen
 INFO - krishagni.occat.integration.util.Utility - INFO - AjaySECONDS
 INFO - krishagni.occat.integration.util.Utility - INFO - returnSECONDS
 INFO - krishagni.occat.integration.util.Utility - INFO - TIMe Unit Seconds
 INFO - krishagni.occat.integration.util.Utility - INFO -  in if Sen
 INFO - krishagni.occat.integration.util.Utility - INFO - AjaySECONDS
 INFO - krishagni.occat.integration.util.Utility - INFO - returnSECONDS
 INFO - krishagni.occat.integration.util.Utility - INFO - TIMe Unit Seconds
 INFO - krishagni.occat.integration.util.Utility - INFO -  in if Sen
 INFO - krishagni.occat.integration.util.Utility - INFO - AjaySECONDS
 INFO - krishagni.occat.integration.util.Utility - INFO - returnSECONDS
 INFO - krishagni.occat.integration.util.Utility - INFO - TIMe Unit Seconds
 INFO - krishagni.occat.integration.util.Utility - INFO -  in if Sen
 INFO - krishagni.occat.integration.util.Utility - INFO - AjaySECONDS
 INFO - krishagni.occat.integration.util.Utility - INFO - returnSECONDS
 INFO - krishagni.occat.integration.util.Utility - INFO - TIMe Unit Seconds
 INFO - krishagni.occat.integration.util.Utility - INFO -  in if Sen
 INFO - krishagni.occat.integration.util.Utility - INFO - AjaySECONDS
 INFO - krishagni.occat.integration.util.Utility - INFO - returnSECONDS
 INFO - krishagni.occat.integration.util.Utility - INFO - TIMe Unit Seconds
 INFO - krishagni.occat.integration.util.Utility - INFO -  in if Sen
 INFO - krishagni.occat.integration.util.Utility - INFO - AjaySECONDS
 INFO - krishagni.occat.integration.util.Utility - INFO - returnSECONDS
 INFO - krishagni.occat.integration.util.Utility - INFO - TIMe Unit Seconds
 INFO - krishagni.occat.integration.util.Utility - INFO -  in if Sen
 INFO - krishagni.occat.integration.util.Utility - INFO - AjaySECONDS
 INFO - krishagni.occat.integration.util.Utility - INFO - returnSECONDS
 INFO - krishagni.occat.integration.util.Utility - INFO - TIMe Unit Seconds
 INFO - krishagni.occat.integration.util.Utility - INFO -  in if Sen
 INFO - krishagni.occat.integration.util.Utility - INFO - AjaySECONDS
 INFO - krishagni.occat.integration.util.Utility - INFO - returnSECONDS
 INFO - krishagni.occat.integration.util.Utility - INFO - TIMe Unit Seconds
 INFO - krishagni.occat.integration.util.Utility - INFO -  in if Sen
 INFO - krishagni.occat.integration.util.Utility - INFO - AjaySECONDS
 INFO - krishagni.occat.integration.util.Utility - INFO - returnSECONDS
 INFO - krishagni.occat.integration.util.Utility - INFO - TIMe Unit Seconds
 INFO - krishagni.occat.integration.util.Utility - INFO -  in if Sen
 INFO - krishagni.occat.integration.util.Utility - INFO - AjaySECONDS
 INFO - krishagni.occat.integration.util.Utility - INFO - returnSECONDS
 INFO - krishagni.occat.integration.util.Utility - INFO - TIMe Unit Seconds
 INFO - krishagni.occat.integration.util.Utility - INFO -  in if Sen
 INFO - krishagni.occat.integration.util.Utility - INFO - AjaySECONDS
 INFO - krishagni.occat.integration.util.Utility - INFO - returnSECONDS
 INFO - krishagni.occat.integration.util.Utility - INFO - TIMe Unit Seconds
 INFO - krishagni.occat.integration.util.Utility - INFO -  in if Sen
 INFO - krishagni.occat.integration.util.Utility - INFO - AjaySECONDS
 INFO - krishagni.occat.integration.util.Utility - INFO - returnSECONDS
 INFO - krishagni.occat.integration.util.Utility - INFO - TIMe Unit Seconds
 INFO - krishagni.occat.integration.util.Utility - INFO -  in if Sen
 INFO - krishagni.occat.integration.util.Utility - INFO - AjaySECONDS
 INFO - krishagni.occat.integration.util.Utility - INFO - returnSECONDS
 INFO - krishagni.occat.integration.util.Utility - INFO - TIMe Unit Seconds
 INFO - krishagni.occat.integration.util.Utility - INFO -  in if Sen
 INFO - krishagni.occat.integration.util.Utility - INFO - AjaySECONDS
 INFO - krishagni.occat.integration.util.Utility - INFO - returnSECONDS
 INFO - krishagni.occat.integration.util.Utility - INFO - TIMe Unit Seconds
 INFO - krishagni.occat.integration.util.Utility - INFO -  in if Sen
 INFO - krishagni.occat.integration.util.Utility - INFO - AjaySECONDS
 INFO - krishagni.occat.integration.util.Utility - INFO - returnSECONDS
 INFO - krishagni.occat.integration.util.Utility - INFO - TIMe Unit Seconds
 INFO - krishagni.occat.integration.util.Utility - INFO -  in if Sen
 INFO - krishagni.occat.integration.util.Utility - INFO - AjaySECONDS
 INFO - krishagni.occat.integration.util.Utility - INFO - returnSECONDS
 INFO - krishagni.occat.integration.util.Utility - INFO - TIMe Unit Seconds
 INFO - krishagni.occat.integration.util.Utility - INFO -  in if Sen
 INFO - krishagni.occat.integration.util.Utility - INFO - AjaySECONDS
 INFO - krishagni.occat.integration.util.Utility - INFO - returnSECONDS
 INFO - krishagni.occat.integration.util.Utility - INFO - TIMe Unit Seconds
 INFO - krishagni.occat.integration.util.Utility - INFO -  in if Sen
 INFO - krishagni.occat.integration.util.Utility - INFO - AjaySECONDS
 INFO - krishagni.occat.integration.util.Utility - INFO - returnSECONDS
 INFO - krishagni.occat.integration.util.Utility - INFO - TIMe Unit Seconds
 INFO - krishagni.occat.integration.util.Utility - INFO -  in if Sen
 INFO - krishagni.occat.integration.util.Utility - INFO - AjaySECONDS
 INFO - krishagni.occat.integration.util.Utility - INFO - returnSECONDS
 INFO - krishagni.occat.integration.util.Utility - INFO - TIMe Unit Seconds
 INFO - krishagni.occat.integration.util.Utility - INFO -  in if Sen
 INFO - krishagni.occat.integration.util.Utility - INFO - AjaySECONDS
 INFO - krishagni.occat.integration.util.Utility - INFO - returnSECONDS
 INFO - krishagni.occat.integration.util.Utility - INFO - TIMe Unit Seconds
 INFO - krishagni.occat.integration.util.Utility - INFO -  in if Sen
 INFO - krishagni.occat.integration.util.Utility - INFO - AjaySECONDS
 INFO - krishagni.occat.integration.util.Utility - INFO - returnSECONDS
 INFO - krishagni.occat.integration.util.Utility - INFO - TIMe Unit Seconds
 INFO - krishagni.occat.integration.util.Utility - INFO -  in if Sen
 INFO - krishagni.occat.integration.util.Utility - INFO - AjaySECONDS
 INFO - krishagni.occat.integration.util.Utility - INFO - returnSECONDS
 INFO - krishagni.occat.integration.util.Utility - INFO - TIMe Unit Seconds
 INFO - krishagni.occat.integration.util.Utility - INFO -  in if Sen
 INFO - krishagni.occat.integration.util.Utility - INFO - AjaySECONDS
 INFO - krishagni.occat.integration.util.Utility - INFO - returnSECONDS
 INFO - krishagni.occat.integration.util.Utility - INFO - TIMe Unit Seconds
 INFO - krishagni.occat.integration.util.Utility - INFO -  in if Sen
 INFO - krishagni.occat.integration.util.Utility - INFO - AjaySECONDS
 INFO - krishagni.occat.integration.util.Utility - INFO - returnSECONDS
 INFO - krishagni.occat.integration.util.Utility - INFO - TIMe Unit Seconds
 INFO - krishagni.occat.integration.util.Utility - INFO -  in if Sen
 INFO - krishagni.occat.integration.util.Utility - INFO - AjaySECONDS
 INFO - krishagni.occat.integration.util.Utility - INFO - returnSECONDS
 INFO - krishagni.occat.integration.util.Utility - INFO - TIMe Unit Seconds
 INFO - krishagni.occat.integration.util.Utility - INFO -  in if Sen
 INFO - krishagni.occat.integration.util.Utility - INFO - AjaySECONDS
 INFO - krishagni.occat.integration.util.Utility - INFO - returnSECONDS
 INFO - krishagni.occat.integration.util.Utility - INFO - TIMe Unit Seconds
 INFO - krishagni.occat.integration.util.Utility - INFO -  in if Sen
 INFO - krishagni.occat.integration.util.Utility - INFO - AjaySECONDS
 INFO - krishagni.occat.integration.util.Utility - INFO - returnSECONDS
 INFO - krishagni.occat.integration.util.Utility - INFO - TIMe Unit Seconds
 INFO - krishagni.occat.integration.util.Utility - INFO -  in if Sen
 INFO - krishagni.occat.integration.util.Utility - INFO - AjaySECONDS
 INFO - krishagni.occat.integration.util.Utility - INFO - returnSECONDS
 INFO - krishagni.occat.integration.util.Utility - INFO - TIMe Unit Seconds
 INFO - krishagni.occat.integration.util.Utility - INFO -  in if Sen
 INFO - krishagni.occat.integration.util.Utility - INFO - AjaySECONDS
 INFO - krishagni.occat.integration.util.Utility - INFO - returnSECONDS
 INFO - krishagni.occat.integration.util.Utility - INFO - TIMe Unit Seconds
 INFO - krishagni.occat.integration.util.Utility - INFO -  in if Sen
 INFO - krishagni.occat.integration.util.Utility - INFO - AjaySECONDS
 INFO - krishagni.occat.integration.util.Utility - INFO - returnSECONDS
 INFO - krishagni.occat.integration.util.Utility - INFO - TIMe Unit Seconds
 INFO - krishagni.occat.integration.util.Utility - INFO -  in if Sen
 INFO - krishagni.occat.integration.util.Utility - INFO - AjaySECONDS
 INFO - krishagni.occat.integration.util.Utility - INFO - returnSECONDS
 INFO - krishagni.occat.integration.util.Utility - INFO - TIMe Unit Seconds
 INFO - krishagni.occat.integration.util.Utility - INFO -  in if Sen
 INFO - krishagni.occat.integration.util.Utility - INFO - AjaySECONDS
 INFO - krishagni.occat.integration.util.Utility - INFO - returnSECONDS
 INFO - krishagni.occat.integration.util.Utility - INFO - TIMe Unit Seconds
 INFO - krishagni.occat.integration.util.Utility - INFO -  in if Sen
 INFO - krishagni.occat.integration.util.Utility - INFO - AjaySECONDS
 INFO - krishagni.occat.integration.util.Utility - INFO - returnSECONDS
 INFO - krishagni.occat.integration.util.Utility - INFO - TIMe Unit Seconds
 INFO - krishagni.occat.integration.util.Utility - INFO -  in if Sen
 INFO - krishagni.occat.integration.util.Utility - INFO - AjaySECONDS
 INFO - krishagni.occat.integration.util.Utility - INFO - returnSECONDS
 INFO - krishagni.occat.integration.util.Utility - INFO - TIMe Unit Seconds
 INFO - krishagni.occat.integration.util.Utility - INFO -  in if Sen
 INFO - krishagni.occat.integration.util.Utility - INFO - AjaySECONDS
 INFO - krishagni.occat.integration.util.Utility - INFO - returnSECONDS
 INFO - krishagni.occat.integration.util.Utility - INFO - TIMe Unit Seconds
 INFO - krishagni.occat.integration.util.Utility - INFO -  in if Sen
 INFO - krishagni.occat.integration.util.Utility - INFO - AjaySECONDS
 INFO - krishagni.occat.integration.util.Utility - INFO - returnSECONDS
 INFO - krishagni.occat.integration.util.Utility - INFO - TIMe Unit Seconds
 INFO - krishagni.occat.integration.util.Utility - INFO -  in if Sen
 INFO - krishagni.occat.integration.util.Utility - INFO - AjaySECONDS
 INFO - krishagni.occat.integration.util.Utility - INFO - returnSECONDS
 INFO - krishagni.occat.integration.util.Utility - INFO - TIMe Unit Seconds
 INFO - krishagni.occat.integration.util.Utility - INFO -  in if Sen
 INFO - krishagni.occat.integration.util.Utility - INFO - AjaySECONDS
 INFO - krishagni.occat.integration.util.Utility - INFO - returnSECONDS
 INFO - krishagni.occat.integration.util.Utility - INFO - TIMe Unit Seconds
 INFO - krishagni.occat.integration.util.Utility - INFO -  in if Sen
 INFO - krishagni.occat.integration.util.Utility - INFO - AjaySECONDS
 INFO - krishagni.occat.integration.util.Utility - INFO - returnSECONDS
 INFO - krishagni.occat.integration.util.Utility - INFO - TIMe Unit Seconds
 INFO - krishagni.occat.integration.util.Utility - INFO -  in if Sen
 INFO - krishagni.occat.integration.util.Utility - INFO - AjaySECONDS
 INFO - krishagni.occat.integration.util.Utility - INFO - returnSECONDS
 INFO - krishagni.occat.integration.util.Utility - INFO - TIMe Unit Seconds
 INFO - krishagni.occat.integration.util.Utility - INFO -  in if Sen
 INFO - krishagni.occat.integration.util.Utility - INFO - AjaySECONDS
 INFO - krishagni.occat.integration.util.Utility - INFO - returnSECONDS
 INFO - krishagni.occat.integration.util.Utility - INFO - TIMe Unit Seconds
 INFO - krishagni.occat.integration.util.Utility - INFO -  in if Sen
 INFO - krishagni.occat.integration.util.Utility - INFO - AjaySECONDS
 INFO - krishagni.occat.integration.util.Utility - INFO - returnSECONDS
 INFO - krishagni.occat.integration.util.Utility - INFO - TIMe Unit Seconds
 INFO - krishagni.occat.integration.util.Utility - INFO -  in if Sen
 INFO - krishagni.occat.integration.util.Utility - INFO - AjaySECONDS
 INFO - krishagni.occat.integration.util.Utility - INFO - returnSECONDS
 INFO - krishagni.occat.integration.util.Utility - INFO - TIMe Unit Seconds
 INFO - krishagni.occat.integration.util.Utility - INFO -  in if Sen
 INFO - krishagni.occat.integration.util.Utility - INFO - AjaySECONDS
 INFO - krishagni.occat.integration.util.Utility - INFO - returnSECONDS
 INFO - krishagni.occat.integration.util.Utility - INFO - TIMe Unit Seconds
 INFO - krishagni.occat.integration.util.Utility - INFO -  in if Sen
 INFO - krishagni.occat.integration.util.Utility - INFO - AjaySECONDS
 INFO - krishagni.occat.integration.util.Utility - INFO - returnSECONDS
 INFO - krishagni.occat.integration.util.Utility - INFO - TIMe Unit Seconds
 INFO - krishagni.occat.integration.util.Utility - INFO -  in if Sen
 INFO - krishagni.occat.integration.util.Utility - INFO - AjaySECONDS
 INFO - krishagni.occat.integration.util.Utility - INFO - returnSECONDS
 INFO - krishagni.occat.integration.util.Utility - INFO - TIMe Unit Seconds
 INFO - krishagni.occat.integration.util.Utility - INFO -  in if Sen
 INFO - krishagni.occat.integration.util.Utility - INFO - AjaySECONDS
 INFO - krishagni.occat.integration.util.Utility - INFO - returnSECONDS
 INFO - krishagni.occat.integration.util.Utility - INFO - TIMe Unit Seconds
 INFO - krishagni.occat.integration.util.Utility - INFO -  in if Sen
 INFO - krishagni.occat.integration.util.Utility - INFO - AjaySECONDS
 INFO - krishagni.occat.integration.util.Utility - INFO - returnSECONDS
 INFO - krishagni.occat.integration.util.Utility - INFO - TIMe Unit Seconds
 INFO - krishagni.occat.integration.util.Utility - INFO -  in if Sen
 INFO - krishagni.occat.integration.util.Utility - INFO - AjaySECONDS
 INFO - krishagni.occat.integration.util.Utility - INFO - returnSECONDS
 INFO - krishagni.occat.integration.util.Utility - INFO - TIMe Unit Seconds
 INFO - krishagni.occat.integration.util.Utility - INFO -  in if Sen
 INFO - krishagni.occat.integration.util.Utility - INFO - AjaySECONDS
 INFO - krishagni.occat.integration.util.Utility - INFO - returnSECONDS
 INFO - krishagni.occat.integration.util.Utility - INFO - TIMe Unit Seconds
 INFO - krishagni.occat.integration.util.Utility - INFO -  in if Sen
 INFO - krishagni.occat.integration.util.Utility - INFO - AjaySECONDS
 INFO - krishagni.occat.integration.util.Utility - INFO - returnSECONDS
 INFO - krishagni.occat.integration.util.Utility - INFO - TIMe Unit Seconds
 INFO - krishagni.occat.integration.util.Utility - INFO -  in if Sen
 INFO - krishagni.occat.integration.util.Utility - INFO - AjaySECONDS
 INFO - krishagni.occat.integration.util.Utility - INFO - returnSECONDS
 INFO - krishagni.occat.integration.util.Utility - INFO - TIMe Unit Seconds
 INFO - krishagni.occat.integration.util.Utility - INFO -  in if Sen
 INFO - krishagni.occat.integration.util.Utility - INFO - AjaySECONDS
 INFO - krishagni.occat.integration.util.Utility - INFO - returnSECONDS
 INFO - krishagni.occat.integration.util.Utility - INFO - TIMe Unit Seconds
 INFO - krishagni.occat.integration.util.Utility - INFO -  in if Sen
 INFO - krishagni.occat.integration.util.Utility - INFO - AjaySECONDS
 INFO - krishagni.occat.integration.util.Utility - INFO - returnSECONDS
 INFO - krishagni.occat.integration.util.Utility - INFO - TIMe Unit Seconds
 INFO - krishagni.occat.integration.util.Utility - INFO -  in if Sen
 INFO - krishagni.occat.integration.util.Utility - INFO - AjaySECONDS
 INFO - krishagni.occat.integration.util.Utility - INFO - returnSECONDS
 INFO - krishagni.occat.integration.util.Utility - INFO - TIMe Unit Seconds
 INFO - krishagni.occat.integration.util.Utility - INFO -  in if Sen
 INFO - krishagni.occat.integration.util.Utility - INFO - AjaySECONDS
 INFO - krishagni.occat.integration.util.Utility - INFO - returnSECONDS
 INFO - krishagni.occat.integration.util.Utility - INFO - TIMe Unit Seconds
 INFO - krishagni.occat.integration.util.Utility - INFO -  in if Sen
 INFO - krishagni.occat.integration.util.Utility - INFO - AjaySECONDS
 INFO - krishagni.occat.integration.util.Utility - INFO - returnSECONDS
 INFO - krishagni.occat.integration.util.Utility - INFO - TIMe Unit Seconds
 INFO - krishagni.occat.integration.util.Utility - INFO -  in if Sen
 INFO - krishagni.occat.integration.util.Utility - INFO - AjaySECONDS
 INFO - krishagni.occat.integration.util.Utility - INFO - returnSECONDS
 INFO - krishagni.occat.integration.schedular.AuditSchedular - INFO - <?xml version="1.0" ?>
<subject>
	<identifier><![CDATA[jkdsnk]]></identifier>
	<enrollment_date><![CDATA[2014-03-10 00:00:00.0]]></enrollment_date>
	<gender><![CDATA[m]]></gender>
	<birth_date></birth_date>
	<operation><![CDATA[Add]]></operation>
	<study_id><![CDATA[CS1]]></study_id>
	<application>OpenClinica</application>
</subject>

 INFO - krishagni.occat.integration.schedular.AuditSchedular - INFO - <?xml version="1.0" ?>
<subject>
	<identifier><![CDATA[sjkn]]></identifier>
	<enrollment_date><![CDATA[2014-03-10 00:00:00.0]]></enrollment_date>
	<gender><![CDATA[m]]></gender>
	<birth_date></birth_date>
	<operation><![CDATA[Add]]></operation>
	<study_id><![CDATA[CS1]]></study_id>
	<application>OpenClinica</application>
</subject>

 INFO - krishagni.occat.integration.schedular.AuditSchedular - INFO - <?xml version="1.0" ?>
<subject>
	<identifier><![CDATA[dcskjh]]></identifier>
	<enrollment_date><![CDATA[2014-03-10 00:00:00.0]]></enrollment_date>
	<gender><![CDATA[m]]></gender>
	<birth_date></birth_date>
	<operation><![CDATA[Add]]></operation>
	<study_id><![CDATA[CS1]]></study_id>
	<application>OpenClinica</application>
</subject>

